03: Amounts and proportions
…
Meaningful order of bars

In order to order the categories of a plot (e.g., a barplot), ggplot uses the factor ordering of the variable. If the variable doesn’t have a factor ordering, it converts it to one, which by default orders the variable values in alphabetical order.

For example:

bonica_state = bonica |> 
  group_by(state) |> 
  summarise(total_receipts = sum(total_receipts))

bonica_state

# A tibble: 50 × 2
   state total_receipts
   <chr>          <dbl>
 1 AK         11666480.
 2 AL         70558810.
 3 AR         29105944.
 4 AZ        213923217.
 5 CA        545304218.
 6 CO         88242440.
 7 CT        131725439.
 8 DE         15121464.
 9 FL        468266250.
10 GA        125098366.
# ℹ 40 more rows
…
Stacked charts

Stacked charts are nice when displaying proportions that add up to 100%. For example:

crime_tab = crime |> 
  group_by(pais, aoj12) |> 
  tally() |> 
  drop_na() |> 
  mutate(percent = n / sum(n))

crime_tab

# A tibble: 94 × 4
# Groups:   pais [16]
   pais      aoj12           n percent
   <fct>     <fct>       <int>   <dbl>
 1 Mexico    A lot         120 0.0782 
 2 Mexico    Some          356 0.232  
 3 Mexico    Little        555 0.362  
 4 Mexico    None          463 0.302  
 5 Mexico    Don't Know     38 0.0248 
 6 Mexico    No Response     3 0.00195
 7 Guatemala A lot         205 0.136  
 8 Guatemala Some          398 0.264  
 9 Guatemala Little        490 0.325  
10 Guatemala None          392 0.260  
# ℹ 84 more rows
…
Heat map

Heat maps use the fill aesthetic. Here’s a good place to try out a custom fill scale.

life_year = gapminder |> 
  group_by(year, continent) |> 
  summarise(lifeExp = mean(lifeExp, na.rm = TRUE))

life_year

# A tibble: 60 × 3
# Groups:   year [12]
    year continent lifeExp
   <int> <fct>       <dbl>
 1  1952 Africa       39.1
 2  1952 Americas     53.3
 3  1952 Asia         46.3
 4  1952 Europe       64.4
 5  1952 Oceania      69.3
 6  1957 Africa       41.3
 7  1957 Americas     56.0
 8  1957 Asia         49.3
 9  1957 Europe       66.7
10  1957 Oceania      70.3
# ℹ 50 more rows
…
