06-models
…
I’m gonna look at the elections dataset, and I’ll create a dummy variable that tells me who won each county:

elections = elections |> 
  # make vote share a percent instead of proportion
  mutate(per_dem_2020 = per_dem_2020 * 100,
         per_gop_2020 = per_gop_2020 * 100) |> 
  # created a binary DV
  mutate(dems_win_20 = ifelse(per_dem_2020 > per_gop_2020, 1, 0)) |> 
  # make income in tens of thousands of dollars
  mutate(hh_income = hh_income / 10000)
elections |> 
  select(name, state, census_region, per_dem_2020, dems_win_20, black, hh_income, travel_time)

# A tibble: 3,152 × 8
   name            state census_region per_dem_2020 dems_win_20 black hh_income
   <chr>           <chr> <chr>                <dbl>       <dbl> <dbl>     <dbl>
 1 Autauga County  AL    South                27.0            0  18.4      5.37
 2 Baldwin County  AL    South                22.4            0   9.5      5.02
 3 Barbour County  AL    South                45.8            0  47.6      3.29
 4 Bibb County     AL    South                20.7            0  22.1      3.64
 5 Blount County   AL    South                 9.57           0   1.8      4.41
 6 Bullock County  AL    South                74.7            1  69.9      3.20
 7 Butler County   AL    South                41.8            0  43.6      2.99
 8 Calhoun County  AL    South                29.8            0  20.9      4.00
 9 Chambers County AL    South                41.6            0  39.1      3.24
10 Cherokee County AL    South                13.2            0   4.5      3.49
# ℹ 3,142 more rows
# ℹ 1 more variable: travel_time <dbl>
…
We can do (2) using crossing:

avg_county = elections |> 
  summarise(across(c(travel_time, hh_income), ~mean(., na.rm = TRUE)))

scenario = crossing(travel_time = avg_county$travel_time, 
                    hh_income = avg_county$hh_income,
                    census_region = "South",
                    black = seq(from = min(elections$black, na.rm = TRUE),
                     to = max(elections$black, na.rm = TRUE),
                     by = 1))
scenario

# A tibble: 86 × 4
   travel_time hh_income census_region black
         <dbl>     <dbl> <chr>         <dbl>
 1        23.1      4.58 South             0
 2        23.1      4.58 South             1
 3        23.1      4.58 South             2
 4        23.1      4.58 South             3
 5        23.1      4.58 South             4
 6        23.1      4.58 South             5
 7        23.1      4.58 South             6
 8        23.1      4.58 South             7
 9        23.1      4.58 South             8
10        23.1      4.58 South             9
# ℹ 76 more rows

Then it’s just a matter of plugging in these values into our regression equation. We can do this with augment():

augment(mod_ols, newdata = scenario, se_fit = TRUE)

# A tibble: 86 × 6
   travel_time hh_income census_region black .fitted .se.fit
         <dbl>     <dbl> <chr>         <dbl>   <dbl>   <dbl>
 1        23.1      4.58 South             0    20.8   0.428
 2        23.1      4.58 South             1    21.6   0.417
 3        23.1      4.58 South             2    22.3   0.407
 4        23.1      4.58 South             3    23.1   0.397
 5        23.1      4.58 South             4    23.8   0.388
 6        23.1      4.58 South             5    24.6   0.380
 7        23.1      4.58 South             6    25.3   0.372
 8        23.1      4.58 South             7    26.1   0.364
 9        23.1      4.58 South             8    26.8   0.357
10        23.1      4.58 South             9    27.6   0.351
# ℹ 76 more rows
…
These show us how the effect of a variable varies across conditions, which is valuable for theory-testing. The y-axis here is the coefficient of black.

Predicted values

A different approach is to show what values of the outcome variable we should expect to see in different scenarios. These are the predicted values. We follow the same pattern as with the linear model, we first define a scenario:

scenario = crossing(travel_time = avg_county$travel_time, 
         hh_income = avg_county$hh_income,
         census_region = c("South", "West", "Northeast", "Midwest"),
         black = seq(from = min(elections$black, na.rm = TRUE),
                     to = max(elections$black, na.rm = TRUE),
                     by = 1))
scenario

# A tibble: 344 × 4
   travel_time hh_income census_region black
         <dbl>     <dbl> <chr>         <dbl>
 1        23.1      4.58 Midwest           0
 2        23.1      4.58 Midwest           1
 3        23.1      4.58 Midwest           2
 4        23.1      4.58 Midwest           3
 5        23.1      4.58 Midwest           4
 6        23.1      4.58 Midwest           5
 7        23.1      4.58 Midwest           6
 8        23.1      4.58 Midwest           7
 9        23.1      4.58 Midwest           8
10        23.1      4.58 Midwest           9
# ℹ 334 more rows

Notice how here census_region also varies now, since it’s value matters for black.

pdat = augment(mod_inter, newdata = scenario, se_fit = TRUE) |> 
  mutate(ymin = .fitted - .se.fit * 1.96,
                  ymax = .fitted + .se.fit * 1.96)

pdat

# A tibble: 344 × 8
   travel_time hh_income census_region black .fitted .se.fit  ymin  ymax
         <dbl>     <dbl> <chr>         <dbl>   <dbl>   <dbl> <dbl> <dbl>
 1        23.1      4.58 Midwest           0    26.1   0.418  25.3  26.9
 2        23.1      4.58 Midwest           1    27.4   0.388  26.6  28.1
 3        23.1      4.58 Midwest           2    28.6   0.371  27.9  29.4
 4        23.1      4.58 Midwest           3    29.9   0.369  29.2  30.6
 5        23.1      4.58 Midwest           4    31.2   0.383  30.5  32.0
 6        23.1      4.58 Midwest           5    32.5   0.411  31.7  33.3
 7        23.1      4.58 Midwest           6    33.8   0.449  32.9  34.7
 8        23.1      4.58 Midwest           7    35.1   0.497  34.1  36.0
 9        23.1      4.58 Midwest           8    36.3   0.551  35.3  37.4
10        23.1      4.58 Midwest           9    37.6   0.610  36.4  38.8
# ℹ 334 more rows
…
With logit, I think marginal effects plots are most useful. Same as before, define a scenario where the variable we care about varies and everything else stays the same:

scenario = crossing(travel_time = avg_county$travel_time, 
                    hh_income = avg_county$hh_income,
                    census_region = "South",
                    black = seq(from = min(elections$black, na.rm = TRUE),
                     to = max(elections$black, na.rm = TRUE),
                     by = 1))
scenario

# A tibble: 86 × 4
   travel_time hh_income census_region black
         <dbl>     <dbl> <chr>         <dbl>
 1        23.1      4.58 South             0
 2        23.1      4.58 South             1
 3        23.1      4.58 South             2
 4        23.1      4.58 South             3
 5        23.1      4.58 South             4
 6        23.1      4.58 South             5
 7        23.1      4.58 South             6
 8        23.1      4.58 South             7
 9        23.1      4.58 South             8
10        23.1      4.58 South             9
# ℹ 76 more rows

We then get predictions:

pdat = augment(mod_logit, newdata = scenario, se_fit = TRUE) |> 
  mutate(lo95 = .fitted - 1.96 * .se.fit,
         hi95 = .fitted + 1.96 * .se.fit,
         .fitted = .fitted)
pdat

# A tibble: 86 × 8
   travel_time hh_income census_region black .fitted .se.fit  lo95  hi95
         <dbl>     <dbl> <chr>         <dbl>   <dbl>   <dbl> <dbl> <dbl>
 1        23.1      4.58 South             0   -4.66   0.213 -5.07 -4.24
 2        23.1      4.58 South             1   -4.53   0.208 -4.94 -4.12
 3        23.1      4.58 South             2   -4.40   0.202 -4.80 -4.01
 4        23.1      4.58 South             3   -4.28   0.197 -4.66 -3.89
 5        23.1      4.58 South             4   -4.15   0.191 -4.53 -3.78
 6        23.1      4.58 South             5   -4.03   0.186 -4.39 -3.66
 7        23.1      4.58 South             6   -3.90   0.181 -4.26 -3.55
 8        23.1      4.58 South             7   -3.78   0.175 -4.12 -3.43
 9        23.1      4.58 South             8   -3.65   0.170 -3.98 -3.32
10        23.1      4.58 South             9   -3.53   0.165 -3.85 -3.20
# ℹ 76 more rows
…
Notice that on the log-odds scale, the effect of black is linear.

To get to meaningful values we gotta “reverse” the log-odds, which is done by: \(\frac{1}{(1 + e^{-x})}\)

So:

pdat = augment(mod_logit, newdata = scenario, se_fit = TRUE) |> 
  mutate(lo95 = arm::invlogit(.fitted - 1.96 * .se.fit),
         hi95 = arm::invlogit(.fitted + 1.96 * .se.fit),
         .fitted = arm::invlogit(.fitted))
pdat

# A tibble: 86 × 8
   travel_time hh_income census_region black .fitted .se.fit    lo95   hi95
         <dbl>     <dbl> <chr>         <dbl>   <dbl>   <dbl>   <dbl>  <dbl>
 1        23.1      4.58 South             0 0.00941   0.213 0.00622 0.0142
 2        23.1      4.58 South             1 0.0107    0.208 0.00712 0.0159
 3        23.1      4.58 South             2 0.0121    0.202 0.00815 0.0178
 4        23.1      4.58 South             3 0.0137    0.197 0.00933 0.0200
 5        23.1      4.58 South             4 0.0155    0.191 0.0107  0.0223
 6        23.1      4.58 South             5 0.0175    0.186 0.0122  0.0250
 7        23.1      4.58 South             6 0.0198    0.181 0.0140  0.0280
 8        23.1      4.58 South             7 0.0224    0.175 0.0160  0.0313
 9        23.1      4.58 South             8 0.0253    0.170 0.0183  0.0350
10        23.1      4.58 South             9 0.0286    0.165 0.0209  0.0391
# ℹ 76 more rows
…
Let’s see how this works with prediction.

Define scenario:

scenario = crossing(gdpPercap = seq(0, 10, by = .5))

Predictions:

preds = augment(mod_log, newdata = scenario, se_fit = TRUE) |> 
  mutate(lo95 = .fitted - 1.96 * .se.fit,
         hi95 = .fitted + 1.96 * .se.fit)
preds

# A tibble: 21 × 5
   gdpPercap .fitted .se.fit  lo95  hi95
       <dbl>   <dbl>   <dbl> <dbl> <dbl>
 1       0      3.97 0.00583  3.96  3.98
 2       0.5    4.03 0.00483  4.02  4.04
 3       1      4.10 0.00489  4.09  4.11
 4       1.5    4.16 0.00600  4.15  4.17
 5       2      4.22 0.00771  4.21  4.24
 6       2.5    4.29 0.00971  4.27  4.31
 7       3      4.35 0.0119   4.33  4.38
 8       3.5    4.42 0.0141   4.39  4.45
 9       4      4.48 0.0164   4.45  4.52
10       4.5    4.55 0.0187   4.51  4.58
# ℹ 11 more rows
…
